{
	"GetAncillaryInformationResponse": {
		"status-code": "SUCCESS",
		"suffixList": {
			"suffix": [
				"II",
				"III",
				"JR.",
				"SR."
			]
		},
		"countryList": {
			"country": [{
					"Id": "4492f06a-058d-48b4-929a-9c009f8d9589",
					"Name": "Afghanistan"
				},
				{
					"Id": "c42fc238-41cd-4b80-af7e-b03bb7d564c7",
					"Name": "Albania"
				},
				{
					"Id": "0adaa90d-619a-464a-8d62-0ee527c31ccb",
					"Name": "Algeria"
				},
				{
					"Id": "46de8b2d-60ae-4e47-b3e6-3cfd8e1bd43b",
					"Name": "American Samoa"
				},
				{
					"Id": "cd13085c-00b5-44df-bd78-7898111b768c",
					"Name": "Andorra"
				},
				{
					"Id": "ea97052e-7a06-4033-a0cc-942d91b3b9f8",
					"Name": "Angola"
				},
				{
					"Id": "ec31a798-3890-4520-a1d8-c20da22dadf0",
					"Name": "Anguilla"
				},
				{
					"Id": "0392a05a-c950-4885-ad0d-12e31ce44523",
					"Name": "Antarctica"
				},
				{
					"Id": "563a8368-0d9f-42e3-885f-2142f2580ba7",
					"Name": "Antigua And Barbuda"
				},
				{
					"Id": "d4e1f427-a9a1-48e2-a985-28a24d8ab3da",
					"Name": "Argentina"
				},
				{
					"Id": "493e2106-e45d-4df1-b1f7-e9950f609cbb",
					"Name": "Armenia"
				},
				{
					"Id": "a730bf29-381f-4040-8b74-8adcf0d50a45",
					"Name": "Aruba"
				},
				{
					"Id": "15854ec5-a635-4927-945c-71d26209750d",
					"Name": "Australia"
				},
				{
					"Id": "a441c4c2-f6a6-4874-989f-0ae1aab700e4",
					"Name": "Austria"
				},
				{
					"Id": "4d7d7404-7d51-4ae8-ac06-8d124eba9b70",
					"Name": "Azerbaijan"
				},
				{
					"Id": "8203d5e3-9087-42f1-b4b9-2a7d1059d398",
					"Name": "Bahamas The"
				},
				{
					"Id": "7973928c-a3ac-43e2-abc3-a8ab92d7f782",
					"Name": "Bahrain"
				},
				{
					"Id": "2ad646cc-98a3-44ae-b775-e1949df5c4e1",
					"Name": "Bangladesh"
				},
				{
					"Id": "28be8b7b-5bce-430d-82f1-7604fa440ce6",
					"Name": "Barbados"
				},
				{
					"Id": "619fdfdb-5790-4ea1-a3e6-27f66ac4b688",
					"Name": "Belarus"
				},
				{
					"Id": "23610071-83de-4b96-90d0-eb8d82548cb7",
					"Name": "Belgium"
				},
				{
					"Id": "a2f791fc-405b-4876-adcc-5d484922c55f",
					"Name": "Belize"
				},
				{
					"Id": "045a1be0-8623-43d2-89ac-6d7338d7b486",
					"Name": "Benin"
				},
				{
					"Id": "5064172d-0073-4897-a0ba-a7aa2279db64",
					"Name": "Bermuda"
				},
				{
					"Id": "0fbc44d7-2fc9-4025-8fd2-b6247996dabd",
					"Name": "Bhutan"
				},
				{
					"Id": "c4289bad-da2b-4a39-a4e5-b668d794c8e4",
					"Name": "Bolivia"
				},
				{
					"Id": "2ec5859f-1bd2-4e36-913c-ca3c71998dd2",
					"Name": "Bosnia and Herzegovina"
				},
				{
					"Id": "8f229d3f-6ff2-42ab-ab63-519caec7e46a",
					"Name": "Botswana"
				},
				{
					"Id": "12ac976f-ca3c-4c9b-adc7-a2f5fe5badbf",
					"Name": "Bouvet Island"
				},
				{
					"Id": "0a7f88f1-60ab-4532-8e5a-26431eb3898a",
					"Name": "Brazil"
				},
				{
					"Id": "86adfd96-7e71-4285-abdf-73d9175b436b",
					"Name": "British Indian Ocean Territory"
				},
				{
					"Id": "f0c92ad8-fc76-4a48-92ec-317403e984e5",
					"Name": "Brunei"
				},
				{
					"Id": "8e2eac52-69bf-4e91-b8b4-c2ccf74e02f2",
					"Name": "Bulgaria"
				},
				{
					"Id": "11eb2f1d-bc92-4837-b181-443e2befce73",
					"Name": "Burkina Faso"
				},
				{
					"Id": "c4bff78a-2871-4120-a30d-804f04a1a183",
					"Name": "Burundi"
				},
				{
					"Id": "c2d37a6c-5c60-4ac9-b160-0b5e58a475d7",
					"Name": "Cambodia"
				},
				{
					"Id": "0e1196b7-1de9-4c15-b551-f7589bee35e6",
					"Name": "Cameroon"
				},
				{
					"Id": "7f3e290f-c021-429e-98a9-d7550327bb72",
					"Name": "Canada"
				},
				{
					"Id": "91ee0002-1bb6-49f0-bd73-77d1a44adc75",
					"Name": "Cape Verde"
				},
				{
					"Id": "3542a336-686b-4bf2-9417-a90b191a8a01",
					"Name": "Cayman Islands"
				},
				{
					"Id": "9be8278d-ca31-4c8b-bf16-f137cb0391c3",
					"Name": "Central African Republic"
				},
				{
					"Id": "6331d996-fb40-4756-9503-70da599f0457",
					"Name": "Chad"
				},
				{
					"Id": "062a8a26-d9b5-410c-89ef-a42a9aaae320",
					"Name": "Chile"
				},
				{
					"Id": "c47aadf2-bcb0-4e64-8813-23723c8fc9ef",
					"Name": "China"
				},
				{
					"Id": "eabed7eb-ef1d-42c1-947a-5c22f55c891d",
					"Name": "Christmas Island"
				},
				{
					"Id": "1305204e-7e44-4217-8b1d-5482ae671e1d",
					"Name": "Cocos (Keeling) Islands"
				},
				{
					"Id": "ade5d8ca-0756-4d77-82b3-06c9f3b0e111",
					"Name": "Colombia"
				},
				{
					"Id": "df376bc4-f2a2-47bd-b735-7f07b4141c87",
					"Name": "Comoros"
				},
				{
					"Id": "57212627-f4df-4b4b-9f03-e921c16cd9b4",
					"Name": "Congo"
				},
				{
					"Id": "331c06e9-b355-41e5-81d2-1cffe30e9b8a",
					"Name": "Congo The Democratic Republic Of The"
				},
				{
					"Id": "ba14b184-916e-4cf0-b5fe-d4b224c48411",
					"Name": "Cook Islands"
				},
				{
					"Id": "ae9ae10b-65da-4ad3-9700-1e6c66ca95b8",
					"Name": "Costa Rica"
				},
				{
					"Id": "5c12c8bb-9a5b-4da9-8ee2-578d1e164e09",
					"Name": "Cote D'Ivoire (Ivory Coast)"
				},
				{
					"Id": "3e22a758-d5e9-4cf3-a093-2ef6309e7a26",
					"Name": "Croatia (Hrvatska)"
				},
				{
					"Id": "8317f358-45a9-4ec2-86e4-97347364e1ee",
					"Name": "Cuba"
				},
				{
					"Id": "46c22690-a7a5-4ec5-a5f6-fffba24c968c",
					"Name": "Cyprus"
				},
				{
					"Id": "954fa8d9-0681-4dbd-9ab7-f05d17798f8c",
					"Name": "Czech Republic"
				},
				{
					"Id": "e9435ed8-51e2-439d-a199-5c0d43cf0bc8",
					"Name": "Denmark"
				},
				{
					"Id": "4e85f3f3-112b-4d5e-9bc7-df3fa9badbf1",
					"Name": "Djibouti"
				},
				{
					"Id": "2b397feb-13a2-4926-86d9-2388fa8fb87d",
					"Name": "Dominica"
				},
				{
					"Id": "0702619e-0621-4721-abd3-42a53d6c7173",
					"Name": "Dominican Republic"
				},
				{
					"Id": "fa4ea5d2-91a7-4884-807f-ab24e89b5c15",
					"Name": "East Timor"
				},
				{
					"Id": "46684261-e643-4685-a64d-aa065d37b591",
					"Name": "Ecuador"
				},
				{
					"Id": "38ccd26c-5cca-4b52-916c-111471f47917",
					"Name": "Egypt"
				},
				{
					"Id": "797c5da5-6a04-4539-94b1-64ab2a300654",
					"Name": "El Salvador"
				},
				{
					"Id": "e414977e-2463-44df-8187-4c4d5bea02b9",
					"Name": "Equatorial Guinea"
				},
				{
					"Id": "f2a46518-4d07-4290-9811-1a367791b1e6",
					"Name": "Eritrea"
				},
				{
					"Id": "24ca89f8-27eb-4512-a8ab-fe4977d03003",
					"Name": "Estonia"
				},
				{
					"Id": "20b7186c-56e5-4b28-8430-ada7d98512ce",
					"Name": "Ethiopia"
				},
				{
					"Id": "b96c13d5-c372-4249-b4c2-91d60ef503b6",
					"Name": "External Territories of Australia"
				},
				{
					"Id": "fd5d3a13-f83a-441b-9af6-fb9bcd84b9c9",
					"Name": "Falkland Islands"
				},
				{
					"Id": "3566aa11-ee0c-41b0-90ac-ddedd0872a34",
					"Name": "Faroe Islands"
				},
				{
					"Id": "2d557d29-dc77-43f5-86ac-ef1d3aa816b6",
					"Name": "Fiji Islands"
				},
				{
					"Id": "7b8c8ff7-86c7-4203-828c-52b0fae41734",
					"Name": "Finland"
				},
				{
					"Id": "71cf60c0-cd05-4d7f-bea5-b989050ce5ca",
					"Name": "France"
				},
				{
					"Id": "1a0ec4c0-1617-425d-959d-a4adf8b97d29",
					"Name": "French Guiana"
				},
				{
					"Id": "422749b0-205e-46fa-8b74-475934deb346",
					"Name": "French Polynesia"
				},
				{
					"Id": "bcda0d51-8c9b-4308-acec-5ac8a126f319",
					"Name": "French Southern Territories"
				},
				{
					"Id": "13813727-8b26-460d-8737-bde8d1ffc865",
					"Name": "Gabon"
				},
				{
					"Id": "c3ac2bb1-5114-4054-b415-8ceed0dc8769",
					"Name": "Gambia The"
				},
				{
					"Id": "2fc99777-aa68-4f80-860d-91cd61e8c4d6",
					"Name": "Georgia"
				},
				{
					"Id": "9fbc1693-2fc1-483e-bec8-2d70214747dd",
					"Name": "Germany"
				},
				{
					"Id": "6c4196dd-83b7-42b8-bef9-abb4ecb9f6bf",
					"Name": "Ghana"
				},
				{
					"Id": "b283ed11-8cdc-488c-b971-70e092f286de",
					"Name": "Gibraltar"
				},
				{
					"Id": "0ac5c91a-086b-4754-a67b-52add00f0a6d",
					"Name": "Greece"
				},
				{
					"Id": "2026b1ed-be84-42b8-9cdf-9b3354dde761",
					"Name": "Greenland"
				},
				{
					"Id": "9110a83f-5b37-4702-8967-1431c2c6fb79",
					"Name": "Grenada"
				},
				{
					"Id": "ae5baabe-5ec7-4dae-9572-4cda9c3b94fb",
					"Name": "Guadeloupe"
				},
				{
					"Id": "a854e41d-0f7f-4e89-b26f-273689153c92",
					"Name": "Guam"
				},
				{
					"Id": "86602958-12a0-4fbf-9b97-413e00446d6e",
					"Name": "Guatemala"
				},
				{
					"Id": "7f52f610-efbf-460f-8074-be5565e3940d",
					"Name": "Guernsey and Alderney"
				},
				{
					"Id": "5a72ea6d-2e5e-4214-81aa-9c418207ad11",
					"Name": "Guinea"
				},
				{
					"Id": "72949f4d-05cf-42be-9272-9c089755de3e",
					"Name": "Guinea-Bissau"
				},
				{
					"Id": "0113a90b-1065-4832-8e3c-8b3ca7058a5a",
					"Name": "Guyana"
				},
				{
					"Id": "c24b1204-09e9-4648-83ec-8a7ef12e18b5",
					"Name": "Haiti"
				},
				{
					"Id": "4bfb89c4-b69b-4858-9d6c-f9f14a9eb566",
					"Name": "Heard and McDonald Islands"
				},
				{
					"Id": "974710e6-0099-4a09-852a-c54fa63fabb8",
					"Name": "Honduras"
				},
				{
					"Id": "a58bb0ed-9203-41b5-a32a-e9c32eee7816",
					"Name": "Hong Kong S.A.R."
				},
				{
					"Id": "6c25afaa-5030-4e61-932e-a168cb80e11b",
					"Name": "Hungary"
				},
				{
					"Id": "8479dbc0-fad9-485e-ac57-3e423242f15c",
					"Name": "Iceland"
				},
				{
					"Id": "5df091cf-0fc1-4a35-b7cd-7fb3e55157f9",
					"Name": "India"
				},
				{
					"Id": "3d44418c-d167-4d9d-9076-2126d6f94611",
					"Name": "Indonesia"
				},
				{
					"Id": "eab23119-d219-442d-a296-b7ae178cc2ce",
					"Name": "Iran"
				},
				{
					"Id": "8ef06af9-e2f3-4291-b92d-c4115c609df4",
					"Name": "Iraq"
				},
				{
					"Id": "2812f6a8-e531-4142-848a-becc00bac0bc",
					"Name": "Ireland"
				},
				{
					"Id": "8264b551-244b-400e-8b60-519e8dceea00",
					"Name": "Israel"
				},
				{
					"Id": "5a8dc690-9b64-44ab-9058-7b1b68ea30d7",
					"Name": "Italy"
				},
				{
					"Id": "8dd51dd6-4dc1-41ad-b5b5-b51708246c7a",
					"Name": "Jamaica"
				},
				{
					"Id": "d796218d-279f-46e0-ba3a-cdd45de48436",
					"Name": "Japan"
				},
				{
					"Id": "54eacf80-7163-445f-8c4a-5dff15c1e57e",
					"Name": "Jersey"
				},
				{
					"Id": "2d5c68a8-76b3-4f7c-aaee-96704d05cb85",
					"Name": "Jordan"
				},
				{
					"Id": "1a264285-af23-4eba-9071-c608e0649595",
					"Name": "Kazakhstan"
				},
				{
					"Id": "bb02b5e4-f5db-487e-86fc-02239a6846d3",
					"Name": "Kenya"
				},
				{
					"Id": "4a95e292-0ee9-4364-9b69-dade08b241b5",
					"Name": "Kiribati"
				},
				{
					"Id": "33e55300-41f4-4533-b00e-0a1b7fde853a",
					"Name": "Korea North"
				},
				{
					"Id": "17037d10-1e7f-4c69-a1ce-957d04a48a99",
					"Name": "Korea South"
				},
				{
					"Id": "c56243f4-57fe-4b29-96b6-cf265fd2f6a3",
					"Name": "Kuwait"
				},
				{
					"Id": "b35b7874-b840-4ac2-8ee6-0699432d9fda",
					"Name": "Kyrgyzstan"
				},
				{
					"Id": "8b59ed66-3f72-4b22-8a6e-847f15a22720",
					"Name": "Laos"
				},
				{
					"Id": "3fbe4561-602b-4d86-a448-dba32ae63807",
					"Name": "Latvia"
				},
				{
					"Id": "1e3745fc-8640-4b40-bde7-d7b92f11be44",
					"Name": "Lebanon"
				},
				{
					"Id": "9d9c996c-98c7-482e-987a-b83450e7bb58",
					"Name": "Lesotho"
				},
				{
					"Id": "3ee9ed9f-50f9-45cc-9e22-e933403d354e",
					"Name": "Liberia"
				},
				{
					"Id": "5dc26f8a-eb5a-410a-9ceb-9895d7678494",
					"Name": "Libya"
				},
				{
					"Id": "3787b1bf-e3e4-48b9-bd97-260688b066cb",
					"Name": "Liechtenstein"
				},
				{
					"Id": "69cb9aae-3b24-428e-8e85-7d4acfe6f591",
					"Name": "Lithuania"
				},
				{
					"Id": "63440c38-e502-48fd-86e9-e95612a0be86",
					"Name": "Luxembourg"
				},
				{
					"Id": "b0f1fdc1-5598-4bdf-ac17-5a8f7251be7f",
					"Name": "Macau S.A.R."
				},
				{
					"Id": "0db175a8-ebe0-4b17-9705-c015770675ba",
					"Name": "Macedonia"
				},
				{
					"Id": "46e87e36-2485-45a0-9594-0154e3684496",
					"Name": "Madagascar"
				},
				{
					"Id": "2830d2bf-eb31-4448-944d-c2ca611eebdf",
					"Name": "Malawi"
				},
				{
					"Id": "5a56c99f-7335-4f73-88e1-09ebdbd87dfa",
					"Name": "Malaysia"
				},
				{
					"Id": "f808a49e-6427-4c55-b1d5-22c67f1f167c",
					"Name": "Maldives"
				},
				{
					"Id": "83553dc1-ba48-4f43-8dd2-e51443338479",
					"Name": "Mali"
				},
				{
					"Id": "d65828e5-3ed7-4458-83e1-46af22881084",
					"Name": "Malta"
				},
				{
					"Id": "83178420-d20b-4169-976b-bb062c8e994c",
					"Name": "Man (Isle of)"
				},
				{
					"Id": "a7a8374f-bd47-43b9-9418-ff2f2fa76770",
					"Name": "Marshall Islands"
				},
				{
					"Id": "4da35f5e-6827-4849-a4c5-b98d6a6d0288",
					"Name": "Martinique"
				},
				{
					"Id": "8aadac2e-1840-4263-a1a8-efc87aca00dc",
					"Name": "Mauritania"
				},
				{
					"Id": "cf19252c-9352-49c1-9611-54e096334a65",
					"Name": "Mauritius"
				},
				{
					"Id": "6de9bfec-d734-4584-9d44-2418ac093d8f",
					"Name": "Mayotte"
				},
				{
					"Id": "10d281e4-8b8c-4dac-81e7-6d07f8322019",
					"Name": "Mexico"
				},
				{
					"Id": "fc4efea1-ed83-4429-9ba6-cbf7bf4cce78",
					"Name": "Micronesia"
				},
				{
					"Id": "71b2f13f-6ca4-439a-8022-69dcc26530f4",
					"Name": "Moldova"
				},
				{
					"Id": "72273e4a-aca4-4f03-b054-d01f574700e0",
					"Name": "Monaco"
				},
				{
					"Id": "10c2a207-19ba-4b8e-b21b-9a6f5bbf1db3",
					"Name": "Mongolia"
				},
				{
					"Id": "eb0e944d-586b-43e7-90ed-1172fa0826ca",
					"Name": "Montserrat"
				},
				{
					"Id": "a98dd515-dabe-4ff1-99fb-407ec68d5b2f",
					"Name": "Morocco"
				},
				{
					"Id": "89634354-9301-4d68-a417-26a441eafa23",
					"Name": "Mozambique"
				},
				{
					"Id": "4750aed7-3d2c-49a9-a2db-a0875298fc26",
					"Name": "Myanmar"
				},
				{
					"Id": "c42a1080-0d98-479f-9e00-befd42755777",
					"Name": "Namibia"
				},
				{
					"Id": "e5e6a988-39ff-4c54-9bb8-c7f0940f8932",
					"Name": "Nauru"
				},
				{
					"Id": "fed21720-6d70-464d-965d-1c11c2dc06f7",
					"Name": "Nepal"
				},
				{
					"Id": "e62a6a5d-176f-4cae-ba34-4f14007e16bf",
					"Name": "Netherlands Antilles"
				},
				{
					"Id": "bd3be8bb-1630-47d4-8cf7-f9cb8d8b20df",
					"Name": "Netherlands The"
				},
				{
					"Id": "a0c9c54a-45e5-4547-908b-704010944ba5",
					"Name": "New Caledonia"
				},
				{
					"Id": "569574d1-17c1-4e22-99de-83c978a049fe",
					"Name": "New Zealand"
				},
				{
					"Id": "10e02917-4f97-4523-9b7f-ec0d8897582e",
					"Name": "Nicaragua"
				},
				{
					"Id": "21699bbd-2127-42ae-a34d-41581a6480a0",
					"Name": "Niger"
				},
				{
					"Id": "e8d9ba11-fe4c-48bd-a125-b5e73aa3ceca",
					"Name": "Nigeria"
				},
				{
					"Id": "c6abbbca-2a5b-4ef9-a442-85864cfff53d",
					"Name": "Niue"
				},
				{
					"Id": "7fc2ac9b-4a74-4902-967b-0b08cfd68cbf",
					"Name": "Norfolk Island"
				},
				{
					"Id": "923329ca-97d9-4ce5-b4ff-6ac74fe1a31c",
					"Name": "Northern Mariana Islands"
				},
				{
					"Id": "254bbf04-7dd2-4005-9d91-2e339ad0d0bd",
					"Name": "Norway"
				},
				{
					"Id": "aeac148b-d93c-4fad-90a4-f36aac1941b8",
					"Name": "Oman"
				},
				{
					"Id": "57ef9fad-9320-4861-8558-3cc957a47aef",
					"Name": "Pakistan"
				},
				{
					"Id": "d2e8af8b-b0ba-4475-8b40-fe86eb0ca316",
					"Name": "Palau"
				},
				{
					"Id": "7a6fd39b-3daa-4910-bc49-a059f0527f38",
					"Name": "Palestinian Territory Occupied"
				},
				{
					"Id": "0cae1f43-36c7-4ddd-a7e5-2151b2550bb6",
					"Name": "Panama"
				},
				{
					"Id": "f26f53d8-3488-42d5-92d2-21c896f43161",
					"Name": "Papua new Guinea"
				},
				{
					"Id": "8107e4f3-9423-4129-ad6b-23bb4a411858",
					"Name": "Paraguay"
				},
				{
					"Id": "040bb9e7-25be-4ba4-bf3f-f863f503e5dc",
					"Name": "Peru"
				},
				{
					"Id": "795e1a26-52c1-4bc9-888c-08f189561af6",
					"Name": "Philippines"
				},
				{
					"Id": "04d2ad4c-886b-4515-a7b8-7a92b279b74d",
					"Name": "Pitcairn Island"
				},
				{
					"Id": "a12f4d37-e811-4bcc-a440-6b573da53e71",
					"Name": "Poland"
				},
				{
					"Id": "2c433493-524a-422c-8f3a-3aebdd8f18dc",
					"Name": "Portugal"
				},
				{
					"Id": "9e03d1dc-fb09-4968-9823-474dc3edc65f",
					"Name": "Puerto Rico"
				},
				{
					"Id": "7be237fe-d67d-4f48-8d23-aa20dcb947b1",
					"Name": "Qatar"
				},
				{
					"Id": "801206cc-b24b-4448-b068-46e21859cf7d",
					"Name": "Reunion"
				},
				{
					"Id": "4bca247a-fe85-46ba-9bdd-ec4baf0b4466",
					"Name": "Romania"
				},
				{
					"Id": "354636b9-a37a-4b9c-90d8-4d205237521d",
					"Name": "Russia"
				},
				{
					"Id": "1f74ed9d-075f-47fd-992b-a97f31640538",
					"Name": "Rwanda"
				},
				{
					"Id": "2fb9d53e-581d-452b-9be2-90c4551cd21d",
					"Name": "Saint Helena"
				},
				{
					"Id": "ae6351fd-7d48-4789-95c4-7576ac6ed18e",
					"Name": "Saint Kitts And Nevis"
				},
				{
					"Id": "990d80c0-528b-48e8-9007-9d6ff09e2018",
					"Name": "Saint Lucia"
				},
				{
					"Id": "157796ad-96d0-4102-a8db-703eb06b853a",
					"Name": "Saint Pierre and Miquelon"
				},
				{
					"Id": "43286eb3-7100-489f-b0e9-3b3925415fd8",
					"Name": "Saint Vincent And The Grenadines"
				},
				{
					"Id": "a85e2309-110e-4e24-9988-0a5bd5b3ec37",
					"Name": "Samoa"
				},
				{
					"Id": "8f74cfd2-5322-40e2-91a1-1b1648ec1e8b",
					"Name": "San Marino"
				},
				{
					"Id": "3311773e-53c8-458e-aacd-a079a0ea54c8",
					"Name": "Sao Tome and Principe"
				},
				{
					"Id": "0add02ae-336c-467a-a48a-1f6004929d28",
					"Name": "Saudi Arabia"
				},
				{
					"Id": "c1135a06-e96b-4642-95ea-946e7ff23d06",
					"Name": "Senegal"
				},
				{
					"Id": "55493055-715f-42ec-83f6-e65483dd82aa",
					"Name": "Serbia"
				},
				{
					"Id": "a1d4ad7d-7723-4910-92d1-96b44edbedde",
					"Name": "Seychelles"
				},
				{
					"Id": "2834cd5c-258a-4518-b9dc-44af130111e6",
					"Name": "Sierra Leone"
				},
				{
					"Id": "cd8465c2-843b-40d0-9117-577bfc7c4fc7",
					"Name": "Singapore"
				},
				{
					"Id": "15ab3f96-809c-4881-8279-f08f6337b15b",
					"Name": "Slovakia"
				},
				{
					"Id": "afb150ca-4c59-4069-a0eb-c7ad3f354754",
					"Name": "Slovenia"
				},
				{
					"Id": "ef29ca30-c10b-4137-b93c-a4690c685c43",
					"Name": "Smaller Territories of the UK"
				},
				{
					"Id": "427ffd9e-ea55-4e0e-a044-8b32a3b2c5e5",
					"Name": "Solomon Islands"
				},
				{
					"Id": "3232374d-b37e-448c-aba2-dd7c431ec81f",
					"Name": "Somalia"
				},
				{
					"Id": "768be8f8-66ed-4ec4-99b4-6ce553e49955",
					"Name": "South Africa"
				},
				{
					"Id": "acb8d445-40d5-4a93-9c25-f7588d6ece39",
					"Name": "South Georgia"
				},
				{
					"Id": "c26be94d-b040-47e4-b2d2-cc020580f772",
					"Name": "South Sudan"
				},
				{
					"Id": "bac1b1a8-87ab-467d-bd11-0315016d4209",
					"Name": "Spain"
				},
				{
					"Id": "4025dbd6-ae98-48d3-bc0b-21d5a62ea9b5",
					"Name": "Sri Lanka"
				},
				{
					"Id": "7d7c5d6f-b494-49a9-b107-a742adf0c9b7",
					"Name": "Sudan"
				},
				{
					"Id": "58243815-cdc1-4a24-8ae5-0496e38354d4",
					"Name": "Suriname"
				},
				{
					"Id": "9246cea5-7d43-417c-90b3-5b86f06546ad",
					"Name": "Svalbard And Jan Mayen Islands"
				},
				{
					"Id": "7b192bfc-4426-4d32-bfcb-bdd3cc0fb58b",
					"Name": "Swaziland"
				},
				{
					"Id": "707c2afe-c43c-4861-8a94-362c2a6e66a6",
					"Name": "Sweden"
				},
				{
					"Id": "5f6b926d-1550-43ac-98f2-5eab5b73ce13",
					"Name": "Switzerland"
				},
				{
					"Id": "deb679be-63cf-453b-870d-94402581a072",
					"Name": "Syria"
				},
				{
					"Id": "1caecb3e-0b1b-4a78-be52-990ee70665fc",
					"Name": "Taiwan"
				},
				{
					"Id": "917e1e7c-3480-42eb-aa10-00c00d572f6f",
					"Name": "Tajikistan"
				},
				{
					"Id": "742a0cb3-e277-4efc-b654-95e55c416208",
					"Name": "Tanzania"
				},
				{
					"Id": "d38163bc-afc7-40c1-8ce4-56920f973f43",
					"Name": "Thailand"
				},
				{
					"Id": "f51e0dbc-70a8-4e12-9d42-12628014c6e3",
					"Name": "Togo"
				},
				{
					"Id": "684a410d-1d35-45f8-9160-409853b828aa",
					"Name": "Tokelau"
				},
				{
					"Id": "edd02196-b977-44f2-abbd-cfddb4c4f106",
					"Name": "Tonga"
				},
				{
					"Id": "22a64aeb-522b-43e1-9dfc-6c6db30bd04b",
					"Name": "Trinidad And Tobago"
				},
				{
					"Id": "b4b6d599-806a-4050-a99e-98dd8427ab31",
					"Name": "Tunisia"
				},
				{
					"Id": "b74522fc-84be-4aa0-a2c1-ddf154406f8d",
					"Name": "Turkey"
				},
				{
					"Id": "648c13b4-2740-44b4-be7d-d5494fed209a",
					"Name": "Turkmenistan"
				},
				{
					"Id": "e87b9b9e-d3f2-4f95-b3d1-2a078aafa6e9",
					"Name": "Turks And Caicos Islands"
				},
				{
					"Id": "29f62a09-4875-48ea-865c-b04c44cb4d58",
					"Name": "Tuvalu"
				},
				{
					"Id": "9ade9c22-351f-4594-93bf-c2557ded1033",
					"Name": "Uganda"
				},
				{
					"Id": "560bad60-3ad2-4987-ba2d-93f076091d6f",
					"Name": "Ukraine"
				},
				{
					"Id": "2951c194-d1f4-443d-94f4-0239b9501679",
					"Name": "United Arab Emirates"
				},
				{
					"Id": "92e1e66c-0ea7-4c35-b078-942062aee128",
					"Name": "United Kingdom"
				},
				{
					"Id": "c6b699cf-aca4-4453-9e30-2e8a15f4c34a",
					"Name": "United States"
				},
				{
					"Id": "33a72868-3670-4b98-b095-a599a3ecd715",
					"Name": "United States Minor Outlying Islands"
				},
				{
					"Id": "1bc00350-95ea-4d07-bce8-2e0cab3f93e5",
					"Name": "Uruguay"
				},
				{
					"Id": "8adcfe13-4ef8-4e38-b42c-759813b400eb",
					"Name": "Uzbekistan"
				},
				{
					"Id": "6cd236c4-0811-4de0-844c-dbb5d9a645fd",
					"Name": "Vanuatu"
				},
				{
					"Id": "8f9d12b8-3999-4125-ba8c-5c0332de0e17",
					"Name": "Vatican City State (Holy See)"
				},
				{
					"Id": "49ef38ca-8c33-4604-b544-29dd24f09049",
					"Name": "Venezuela"
				},
				{
					"Id": "e1fcbabc-095d-472a-b1ca-96b3df49c14f",
					"Name": "Vietnam"
				},
				{
					"Id": "3722e8f6-1333-4c84-a746-e9dc62f2d9e4",
					"Name": "Virgin Islands (British)"
				},
				{
					"Id": "5f00964f-35b7-440a-a1fa-c7613f34d48a",
					"Name": "Virgin Islands (US)"
				},
				{
					"Id": "234f344d-62fe-4648-8150-a782426c1ed3",
					"Name": "Wallis And Futuna Islands"
				},
				{
					"Id": "63b224e3-eea0-435e-b857-8ee725be73c0",
					"Name": "Western Sahara"
				},
				{
					"Id": "ac02575c-1be4-4539-a082-4150fbb3f81d",
					"Name": "Yemen"
				},
				{
					"Id": "df9cbeb3-6dbc-4036-bbe5-657d6165fd13",
					"Name": "Yugoslavia"
				},
				{
					"Id": "df592d7b-1c0b-49d6-bef2-785b55b5acb8",
					"Name": "Zambia"
				},
				{
					"Id": "ccb064de-eb96-456c-b2b0-2c1f32fc4081",
					"Name": "Zimbabwe"
				}
			]
		},
		"stateList": {
			"state": [
				"AK",
				"AL",
				"AR",
				"AZ",
				"CA",
				"CO",
				"CT",
				"DC",
				"DE",
				"FL",
				"GA",
				"HI",
				"IA",
				"ID",
				"IL",
				"IN",
				"KS",
				"KY",
				"LA",
				"MA",
				"MD",
				"ME",
				"MI",
				"MN",
				"MO",
				"MS",
				"MT",
				"NC",
				"ND",
				"NE",
				"NH",
				"NJ",
				"NM",
				"NV",
				"NY",
				"OH",
				"OK",
				"OR",
				"PA",
				"RI",
				"SC",
				"SD",
				"TN",
				"TX",
				"UT",
				"VA",
				"VT",
				"WA",
				"WI",
				"WV",
				"WY"
			]
		},
		"titleList": {
			"title": [{
					"Id": "9c1eb42a-9cdd-4258-b387-2120e7ecda9d",
					"Name": "Dr."
				},
				{
					"Id": "024a5a87-3948-4b4a-b4e1-9593daf61bc2",
					"Name": "Miss"
				},
				{
					"Id": "5a5ddd5d-8387-4cbb-a3a9-500e661b5776",
					"Name": "Mr."
				},
				{
					"Id": "617c54a0-30d4-4b2c-b281-925cb545450b",
					"Name": "Mrs."
				},
				{
					"Id": "3bcccaee-cfcb-429c-9c05-ef854da15a3d",
					"Name": "Prof."
				}
			]
		},
		"industryTypeList": {
			"industryType": [{
					"ParentId": null,
					"ParentName": null,
					"Id": "cb806687-4615-425a-8870-ff14c20d3c56",
					"Name": "Agriculture"
				},
				{
					"ParentId": "cb806687-4615-425a-8870-ff14c20d3c56",
					"ParentName": null,
					"Id": "b4e03429-a0da-47b1-abfb-cd1dc2893e15",
					"Name": "Dairy"
				},
				{
					"ParentId": "cb806687-4615-425a-8870-ff14c20d3c56",
					"ParentName": null,
					"Id": "3b2e39a3-1036-4544-90fc-58ad7ac81171",
					"Name": "Farming"
				},
				{
					"ParentId": "cb806687-4615-425a-8870-ff14c20d3c56",
					"ParentName": null,
					"Id": "47f5358b-91dc-4535-bf8f-f3b1805fc154",
					"Name": "Fishery"
				},
				{
					"ParentId": "cb806687-4615-425a-8870-ff14c20d3c56",
					"ParentName": null,
					"Id": "f1b5a538-c983-41bd-a119-060b2b93cae9",
					"Name": "Ranching"
				},
				{
					"ParentId": null,
					"ParentName": null,
					"Id": "0f9f3f37-baac-4266-944d-cf0d0f3a19bb",
					"Name": "Arts"
				},
				{
					"ParentId": "0f9f3f37-baac-4266-944d-cf0d0f3a19bb",
					"ParentName": null,
					"Id": "0ff94ae5-7fab-440c-972c-d410090bcb82",
					"Name": "Arts and Crafts"
				},
				{
					"ParentId": "0f9f3f37-baac-4266-944d-cf0d0f3a19bb",
					"ParentName": null,
					"Id": "5a0f091a-1b6e-4df8-a1af-202818fde49f",
					"Name": "Design"
				},
				{
					"ParentId": "0f9f3f37-baac-4266-944d-cf0d0f3a19bb",
					"ParentName": null,
					"Id": "3f2bfc9c-a7a6-45c8-b840-785088ddd0d9",
					"Name": "Fine Art"
				},
				{
					"ParentId": "0f9f3f37-baac-4266-944d-cf0d0f3a19bb",
					"ParentName": null,
					"Id": "af689c99-da36-427b-b111-9351440b59d3",
					"Name": "Graphic Design"
				},
				{
					"ParentId": "0f9f3f37-baac-4266-944d-cf0d0f3a19bb",
					"ParentName": null,
					"Id": "43195c4d-aec0-4192-8724-5395a3fc1c21",
					"Name": "Motion Pictures and Film"
				},
				{
					"ParentId": "0f9f3f37-baac-4266-944d-cf0d0f3a19bb",
					"ParentName": null,
					"Id": "62380d6c-fbd1-49a2-a520-4ccd4b88d06f",
					"Name": "Museums and Institutions"
				},
				{
					"ParentId": "0f9f3f37-baac-4266-944d-cf0d0f3a19bb",
					"ParentName": null,
					"Id": "1a5eb003-9a01-4523-a28c-3add9a662e4e",
					"Name": "Music"
				},
				{
					"ParentId": "0f9f3f37-baac-4266-944d-cf0d0f3a19bb",
					"ParentName": null,
					"Id": "94e706d9-d3de-4931-959a-7f48bec10f0a",
					"Name": "Performing Arts"
				},
				{
					"ParentId": "0f9f3f37-baac-4266-944d-cf0d0f3a19bb",
					"ParentName": null,
					"Id": "8a18bf96-5061-4d80-bbdc-bf60756b90ee",
					"Name": "Photography"
				},
				{
					"ParentId": null,
					"ParentName": null,
					"Id": "270783f0-4908-4a90-9de4-2e6b8a80afc4",
					"Name": "Construction"
				},
				{
					"ParentId": "270783f0-4908-4a90-9de4-2e6b8a80afc4",
					"ParentName": null,
					"Id": "5bd86f73-89c1-4b51-a770-a896c1c6cb9c",
					"Name": "Architecture & Planning"
				},
				{
					"ParentId": "270783f0-4908-4a90-9de4-2e6b8a80afc4",
					"ParentName": null,
					"Id": "37346fd8-2d8a-4293-a008-8a0214524a91",
					"Name": "Building Materials"
				},
				{
					"ParentId": "270783f0-4908-4a90-9de4-2e6b8a80afc4",
					"ParentName": null,
					"Id": "10a5936f-c989-4194-8deb-92468114d691",
					"Name": "Civil Engineering"
				},
				{
					"ParentId": "270783f0-4908-4a90-9de4-2e6b8a80afc4",
					"ParentName": null,
					"Id": "58502e63-a259-4009-8a4b-c5feaba3adf9",
					"Name": "Construction"
				},
				{
					"ParentId": null,
					"ParentName": null,
					"Id": "0ed0bbf7-587b-4034-b50f-ffd03d92b65b",
					"Name": "Consumer Goods"
				},
				{
					"ParentId": "0ed0bbf7-587b-4034-b50f-ffd03d92b65b",
					"ParentName": null,
					"Id": "f64fcf09-edd1-4a25-85ac-35c5e0856e04",
					"Name": "Apparel & Fashion"
				},
				{
					"ParentId": "0ed0bbf7-587b-4034-b50f-ffd03d92b65b",
					"ParentName": null,
					"Id": "2032c211-8e29-46dc-8688-2bca09bd0fe8",
					"Name": "Consumer Electronics"
				},
				{
					"ParentId": "0ed0bbf7-587b-4034-b50f-ffd03d92b65b",
					"ParentName": null,
					"Id": "94dea8b7-95e5-4c3e-9723-235cb61aa84b",
					"Name": "Cosmetics, Food Production"
				},
				{
					"ParentId": "0ed0bbf7-587b-4034-b50f-ffd03d92b65b",
					"ParentName": null,
					"Id": "9736d874-df18-425e-99bb-a4290d92f6ff",
					"Name": "Furniture"
				},
				{
					"ParentId": "0ed0bbf7-587b-4034-b50f-ffd03d92b65b",
					"ParentName": null,
					"Id": "bc417916-2d95-4c3f-88a5-c921ac0bb010",
					"Name": "Import and Export"
				},
				{
					"ParentId": "0ed0bbf7-587b-4034-b50f-ffd03d92b65b",
					"ParentName": null,
					"Id": "52c4864a-0a80-4e79-8328-434d86122cf5",
					"Name": "Luxury Goods & Jewelry"
				},
				{
					"ParentId": "0ed0bbf7-587b-4034-b50f-ffd03d92b65b",
					"ParentName": null,
					"Id": "c5623e94-93ae-43a8-be37-0fada4c8f484",
					"Name": "Retail"
				},
				{
					"ParentId": "0ed0bbf7-587b-4034-b50f-ffd03d92b65b",
					"ParentName": null,
					"Id": "d97a3719-fb2d-4a4b-98d4-70e917c4d7d7",
					"Name": "Sporting Goods"
				},
				{
					"ParentId": "0ed0bbf7-587b-4034-b50f-ffd03d92b65b",
					"ParentName": null,
					"Id": "1d49c2ad-194d-4759-8c15-1146b4d4f5b6",
					"Name": "Super Markets"
				},
				{
					"ParentId": "0ed0bbf7-587b-4034-b50f-ffd03d92b65b",
					"ParentName": null,
					"Id": "e6f02ba0-1132-446d-96fb-f4c9e397e030",
					"Name": "Tobacco"
				},
				{
					"ParentId": "0ed0bbf7-587b-4034-b50f-ffd03d92b65b",
					"ParentName": null,
					"Id": "adb20054-1cb3-401f-9023-b01f7dbeaeea",
					"Name": "Whole Sale"
				},
				{
					"ParentId": "0ed0bbf7-587b-4034-b50f-ffd03d92b65b",
					"ParentName": null,
					"Id": "1c763742-9c01-4b9c-91e3-411f6b630416",
					"Name": "Wine and Spirits"
				},
				{
					"ParentId": null,
					"ParentName": null,
					"Id": "b180a93b-7057-43d6-9645-b0a30e1f2314",
					"Name": "Corporate"
				},
				{
					"ParentId": "b180a93b-7057-43d6-9645-b0a30e1f2314",
					"ParentName": null,
					"Id": "b8af9a7f-8d73-40eb-b5d6-abe27f947c2f",
					"Name": "Business Supplies and Equipment"
				},
				{
					"ParentId": "b180a93b-7057-43d6-9645-b0a30e1f2314",
					"ParentName": null,
					"Id": "c639d9cc-3742-4917-a4ad-fae2ebaea536",
					"Name": "Facilities Services"
				},
				{
					"ParentId": "b180a93b-7057-43d6-9645-b0a30e1f2314",
					"ParentName": null,
					"Id": "f4169c70-f624-4269-9d1d-a31e726ec799",
					"Name": "Human Resources"
				},
				{
					"ParentId": "b180a93b-7057-43d6-9645-b0a30e1f2314",
					"ParentName": null,
					"Id": "42fb4279-053c-47da-81f7-59afef8a0b06",
					"Name": "Management Consulting"
				},
				{
					"ParentId": "b180a93b-7057-43d6-9645-b0a30e1f2314",
					"ParentName": null,
					"Id": "a4d7c407-91ea-4e62-9f4c-7e9de45409e8",
					"Name": "Market Research"
				},
				{
					"ParentId": "b180a93b-7057-43d6-9645-b0a30e1f2314",
					"ParentName": null,
					"Id": "fd117924-fc70-4921-bcaa-240500fe3910",
					"Name": "Marketing and Advertising"
				},
				{
					"ParentId": "b180a93b-7057-43d6-9645-b0a30e1f2314",
					"ParentName": null,
					"Id": "d7aa9b2e-dfeb-4abe-81e4-fd8ea90f3d24",
					"Name": "Outsourcing / Offshoring"
				},
				{
					"ParentId": "b180a93b-7057-43d6-9645-b0a30e1f2314",
					"ParentName": null,
					"Id": "0e1b1154-343e-49c0-93f7-ffb6201d9e40",
					"Name": "Professional Training & Coaching"
				},
				{
					"ParentId": "b180a93b-7057-43d6-9645-b0a30e1f2314",
					"ParentName": null,
					"Id": "3eae7abf-e3da-43f5-93f4-beed428ec522",
					"Name": "Public Relations and Communications"
				},
				{
					"ParentId": "b180a93b-7057-43d6-9645-b0a30e1f2314",
					"ParentName": null,
					"Id": "94404b97-c4b2-429e-87a8-a212c66a0155",
					"Name": "Security and Investigations"
				},
				{
					"ParentId": "b180a93b-7057-43d6-9645-b0a30e1f2314",
					"ParentName": null,
					"Id": "dbb9157e-034e-4240-9f3b-e5addacd6806",
					"Name": "Staffing and Recruiting"
				},
				{
					"ParentId": null,
					"ParentName": null,
					"Id": "bdcba33d-74f4-4eb4-9073-7ea7a0c4b22b",
					"Name": "Educational"
				},
				{
					"ParentId": "bdcba33d-74f4-4eb4-9073-7ea7a0c4b22b",
					"ParentName": null,
					"Id": "f67ff0e1-da30-4adf-84f1-5fdeedf07da0",
					"Name": "Education Management"
				},
				{
					"ParentId": "bdcba33d-74f4-4eb4-9073-7ea7a0c4b22b",
					"ParentName": null,
					"Id": "ab27f7f4-2ca5-4ae4-bc1e-e9a1fba84daf",
					"Name": "E-Learning"
				},
				{
					"ParentId": "bdcba33d-74f4-4eb4-9073-7ea7a0c4b22b",
					"ParentName": null,
					"Id": "2fcb0784-f859-4773-963e-61bd1d114ea6",
					"Name": "Higher Education"
				},
				{
					"ParentId": "bdcba33d-74f4-4eb4-9073-7ea7a0c4b22b",
					"ParentName": null,
					"Id": "a4922aa6-3bf3-457d-9eb8-7b27dbe25ab6",
					"Name": "Primary / Secondary Education"
				},
				{
					"ParentId": "bdcba33d-74f4-4eb4-9073-7ea7a0c4b22b",
					"ParentName": null,
					"Id": "56632d76-ca9d-4a2f-be50-ef9fbe19673a",
					"Name": "Research"
				},
				{
					"ParentId": null,
					"ParentName": null,
					"Id": "e38c7faa-18f4-4b54-a3b5-b15abdf6b6df",
					"Name": "Finance"
				},
				{
					"ParentId": "e38c7faa-18f4-4b54-a3b5-b15abdf6b6df",
					"ParentName": null,
					"Id": "33a4b666-d668-4dbc-8219-820ce1952951",
					"Name": "Accounting"
				},
				{
					"ParentId": "e38c7faa-18f4-4b54-a3b5-b15abdf6b6df",
					"ParentName": null,
					"Id": "af2bf6ea-2674-419f-85cf-669fe3c9ce7d",
					"Name": "Banking"
				},
				{
					"ParentId": "e38c7faa-18f4-4b54-a3b5-b15abdf6b6df",
					"ParentName": null,
					"Id": "d1be05b1-0608-4db9-a4e6-f63bb9531514",
					"Name": "Capital Markets"
				},
				{
					"ParentId": "e38c7faa-18f4-4b54-a3b5-b15abdf6b6df",
					"ParentName": null,
					"Id": "a59210b7-6aa8-4594-8dab-4e47b2f40b26",
					"Name": "Commercial Real Estate"
				},
				{
					"ParentId": "e38c7faa-18f4-4b54-a3b5-b15abdf6b6df",
					"ParentName": null,
					"Id": "a66797f7-a436-4deb-9ec9-29bf19531e68",
					"Name": "Financial Services"
				},
				{
					"ParentId": "e38c7faa-18f4-4b54-a3b5-b15abdf6b6df",
					"ParentName": null,
					"Id": "739c5dbb-4ca2-4a93-90b7-466536b917e1",
					"Name": "Insurance"
				},
				{
					"ParentId": "e38c7faa-18f4-4b54-a3b5-b15abdf6b6df",
					"ParentName": null,
					"Id": "02fbeb1c-633f-4f1b-8d57-39302ba7732a",
					"Name": "Investment Banking"
				},
				{
					"ParentId": "e38c7faa-18f4-4b54-a3b5-b15abdf6b6df",
					"ParentName": null,
					"Id": "3b45f696-a54c-43fc-a711-a888c32f413a",
					"Name": "Investment Management"
				},
				{
					"ParentId": "e38c7faa-18f4-4b54-a3b5-b15abdf6b6df",
					"ParentName": null,
					"Id": "18871082-d2da-452d-a632-48e3ec933dcf",
					"Name": "Real Estate"
				},
				{
					"ParentId": "e38c7faa-18f4-4b54-a3b5-b15abdf6b6df",
					"ParentName": null,
					"Id": "b27bca6f-556d-4dd1-b652-46f223583e78",
					"Name": "Venture Capital & Private Equity"
				},
				{
					"ParentId": null,
					"ParentName": null,
					"Id": "09737b45-b2da-42a0-a966-258b0cd826a9",
					"Name": "Government"
				},
				{
					"ParentId": "09737b45-b2da-42a0-a966-258b0cd826a9",
					"ParentName": null,
					"Id": "8d7a2775-464a-45c2-b19b-92077847b33c",
					"Name": "Executive Office"
				},
				{
					"ParentId": "09737b45-b2da-42a0-a966-258b0cd826a9",
					"ParentName": null,
					"Id": "a2e4a104-d346-4725-809c-365d38f88178",
					"Name": "Government Administration"
				},
				{
					"ParentId": "09737b45-b2da-42a0-a966-258b0cd826a9",
					"ParentName": null,
					"Id": "b6a38e4c-671e-439f-a6c1-a73208b503ba",
					"Name": "Government Relations"
				},
				{
					"ParentId": "09737b45-b2da-42a0-a966-258b0cd826a9",
					"ParentName": null,
					"Id": "4c9d7cb9-f221-47ae-93b8-635cbd332aaa",
					"Name": "International Affairs"
				},
				{
					"ParentId": "09737b45-b2da-42a0-a966-258b0cd826a9",
					"ParentName": null,
					"Id": "fa70b9fc-251d-4892-b6e9-a3b0fb3aca1c",
					"Name": "Judiciary"
				},
				{
					"ParentId": "09737b45-b2da-42a0-a966-258b0cd826a9",
					"ParentName": null,
					"Id": "a321108b-1cb3-4974-9640-deed7e9ddcf5",
					"Name": "Law Enforcement"
				},
				{
					"ParentId": "09737b45-b2da-42a0-a966-258b0cd826a9",
					"ParentName": null,
					"Id": "b42d9741-e1b0-4048-ba6e-0c606227ec1e",
					"Name": "Legislative Office"
				},
				{
					"ParentId": "09737b45-b2da-42a0-a966-258b0cd826a9",
					"ParentName": null,
					"Id": "68f17706-c3b7-414f-8d84-aac3ecea07d9",
					"Name": "Military"
				},
				{
					"ParentId": "09737b45-b2da-42a0-a966-258b0cd826a9",
					"ParentName": null,
					"Id": "4d8ebd74-fecf-49f6-a004-1aeef43f448c",
					"Name": "Political Organisation"
				},
				{
					"ParentId": "09737b45-b2da-42a0-a966-258b0cd826a9",
					"ParentName": null,
					"Id": "c14deb83-597d-4733-bb13-65b1c3eed90a",
					"Name": "Public Policy"
				},
				{
					"ParentId": "09737b45-b2da-42a0-a966-258b0cd826a9",
					"ParentName": null,
					"Id": "08df381c-fc79-433f-9a1e-5de942cd7b1d",
					"Name": "Public Safety"
				},
				{
					"ParentId": null,
					"ParentName": null,
					"Id": "c9fc038b-85d8-4b16-9f3b-8a3f74eeeed3",
					"Name": "High Tech"
				},
				{
					"ParentId": "c9fc038b-85d8-4b16-9f3b-8a3f74eeeed3",
					"ParentName": null,
					"Id": "e939ea8a-1efc-4068-bd8b-50b29d2f3c90",
					"Name": "Computer & Network Security"
				},
				{
					"ParentId": "c9fc038b-85d8-4b16-9f3b-8a3f74eeeed3",
					"ParentName": null,
					"Id": "60a1ef53-a758-4eb2-a2aa-bfb75c21d7a3",
					"Name": "Computer Hardware"
				},
				{
					"ParentId": "c9fc038b-85d8-4b16-9f3b-8a3f74eeeed3",
					"ParentName": null,
					"Id": "6e77442a-4a80-4f72-9b4f-e10e58eafde7",
					"Name": "Computer Networking"
				},
				{
					"ParentId": "c9fc038b-85d8-4b16-9f3b-8a3f74eeeed3",
					"ParentName": null,
					"Id": "afaa4c79-70b1-4059-b280-67920c543bbd",
					"Name": "Computer Software"
				},
				{
					"ParentId": "c9fc038b-85d8-4b16-9f3b-8a3f74eeeed3",
					"ParentName": null,
					"Id": "1f99ae61-1e82-44b5-936e-9ea65cc47683",
					"Name": "Defence & Space"
				},
				{
					"ParentId": "c9fc038b-85d8-4b16-9f3b-8a3f74eeeed3",
					"ParentName": null,
					"Id": "feeada5a-e5d6-458a-999c-766a021ec824",
					"Name": "Information Technology and Services"
				},
				{
					"ParentId": "c9fc038b-85d8-4b16-9f3b-8a3f74eeeed3",
					"ParentName": null,
					"Id": "cdadd808-a493-41b8-9b69-7f85056821b2",
					"Name": "Internet"
				},
				{
					"ParentId": "c9fc038b-85d8-4b16-9f3b-8a3f74eeeed3",
					"ParentName": null,
					"Id": "5b394285-22f7-443c-8951-95ec1e0aab3c",
					"Name": "Nano Technology"
				},
				{
					"ParentId": "c9fc038b-85d8-4b16-9f3b-8a3f74eeeed3",
					"ParentName": null,
					"Id": "bb242b85-40cd-480b-9333-73f62d0fda54",
					"Name": "Semiconductors"
				},
				{
					"ParentId": "c9fc038b-85d8-4b16-9f3b-8a3f74eeeed3",
					"ParentName": null,
					"Id": "4373d782-f3b0-4ca3-8a7c-5c5e8526320b",
					"Name": "Telecommunications"
				},
				{
					"ParentId": "c9fc038b-85d8-4b16-9f3b-8a3f74eeeed3",
					"ParentName": null,
					"Id": "113aec9d-ac9c-409d-9aad-0b620bf9e3fd",
					"Name": "Wireless"
				},
				{
					"ParentId": null,
					"ParentName": null,
					"Id": "dbe1eefa-d347-4d87-aea4-2c689d9dba49",
					"Name": "Legal"
				},
				{
					"ParentId": "dbe1eefa-d347-4d87-aea4-2c689d9dba49",
					"ParentName": null,
					"Id": "9ff79449-fd7f-4e51-b53a-20492b91d104",
					"Name": "Alternative Dispute Resolution"
				},
				{
					"ParentId": "dbe1eefa-d347-4d87-aea4-2c689d9dba49",
					"ParentName": null,
					"Id": "92650e16-d7bc-4c82-b972-9ecfa1114230",
					"Name": "Law Practice"
				},
				{
					"ParentId": "dbe1eefa-d347-4d87-aea4-2c689d9dba49",
					"ParentName": null,
					"Id": "289c130d-639b-4309-a503-4f3c7b7b76d7",
					"Name": "Legal Services"
				},
				{
					"ParentId": null,
					"ParentName": null,
					"Id": "0fab0616-7198-48b5-8ff5-3716ae8b8254",
					"Name": "Manufacturing"
				},
				{
					"ParentId": "0fab0616-7198-48b5-8ff5-3716ae8b8254",
					"ParentName": null,
					"Id": "c512489c-ac9e-40b2-8101-a2fbe0d199f2",
					"Name": "Automotive"
				},
				{
					"ParentId": "0fab0616-7198-48b5-8ff5-3716ae8b8254",
					"ParentName": null,
					"Id": "d84687a6-20c6-48bd-8bed-e4ea634887e4",
					"Name": "Aviation & Aerospace"
				},
				{
					"ParentId": "0fab0616-7198-48b5-8ff5-3716ae8b8254",
					"ParentName": null,
					"Id": "36e8c9e4-69ff-445b-b82d-163c417dc867",
					"Name": "Chemicals"
				},
				{
					"ParentId": "0fab0616-7198-48b5-8ff5-3716ae8b8254",
					"ParentName": null,
					"Id": "4f79308e-aca9-4b5c-8313-8fefe3d29d1c",
					"Name": "Electrical/Electronic Manufacturing"
				},
				{
					"ParentId": "0fab0616-7198-48b5-8ff5-3716ae8b8254",
					"ParentName": null,
					"Id": "45570b11-0c46-4bac-ba69-4afdab6856d0",
					"Name": "Glass Ceramics & Concrete"
				},
				{
					"ParentId": "0fab0616-7198-48b5-8ff5-3716ae8b8254",
					"ParentName": null,
					"Id": "0f536c9b-5da1-4cca-937f-1bfa048938e3",
					"Name": "Industrial Automation"
				},
				{
					"ParentId": "0fab0616-7198-48b5-8ff5-3716ae8b8254",
					"ParentName": null,
					"Id": "dc85be47-02c4-4ffa-a3e5-dea1e8599417",
					"Name": "Machinery"
				},
				{
					"ParentId": "0fab0616-7198-48b5-8ff5-3716ae8b8254",
					"ParentName": null,
					"Id": "0d52d89b-a6a1-43b1-8f3c-148bf64424bc",
					"Name": "Mechanical OR Industrial Engineering"
				},
				{
					"ParentId": "0fab0616-7198-48b5-8ff5-3716ae8b8254",
					"ParentName": null,
					"Id": "e30b2b66-6d2d-4e74-a685-b7afe0284eb9",
					"Name": "Mining & Metals"
				},
				{
					"ParentId": "0fab0616-7198-48b5-8ff5-3716ae8b8254",
					"ParentName": null,
					"Id": "572c3bc3-ab85-4214-a573-566fc91c2647",
					"Name": "Oil & Energy"
				},
				{
					"ParentId": "0fab0616-7198-48b5-8ff5-3716ae8b8254",
					"ParentName": null,
					"Id": "d1b0964c-d4f3-4f34-a2bb-95f789dd27e4",
					"Name": "Packaging and Containers"
				},
				{
					"ParentId": "0fab0616-7198-48b5-8ff5-3716ae8b8254",
					"ParentName": null,
					"Id": "88145621-d0b9-4d2d-becd-4d30e0db6439",
					"Name": "Paper & Forest Products"
				},
				{
					"ParentId": "0fab0616-7198-48b5-8ff5-3716ae8b8254",
					"ParentName": null,
					"Id": "86354c9b-d834-400e-afa1-81d44ca462e9",
					"Name": "Plastics"
				},
				{
					"ParentId": "0fab0616-7198-48b5-8ff5-3716ae8b8254",
					"ParentName": null,
					"Id": "c90a3dca-694f-49a6-82dc-f71b0f183ed9",
					"Name": "Railroad Manufacture"
				},
				{
					"ParentId": "0fab0616-7198-48b5-8ff5-3716ae8b8254",
					"ParentName": null,
					"Id": "0c908b3a-9e2e-4087-8cf4-dceec2207ff6",
					"Name": "Renewables & Environment"
				},
				{
					"ParentId": "0fab0616-7198-48b5-8ff5-3716ae8b8254",
					"ParentName": null,
					"Id": "96aaf22f-c856-490f-9d1e-cc336501dd1f",
					"Name": "Shipbuilding"
				},
				{
					"ParentId": "0fab0616-7198-48b5-8ff5-3716ae8b8254",
					"ParentName": null,
					"Id": "03075df3-2baf-4fcd-9d9c-72331783498b",
					"Name": "Textiles"
				},
				{
					"ParentId": "0fab0616-7198-48b5-8ff5-3716ae8b8254",
					"ParentName": null,
					"Id": "488899ed-2ce6-4086-aeb3-31670f8ae0c7",
					"Name": "Utilities"
				},
				{
					"ParentId": null,
					"ParentName": null,
					"Id": "ac731b8b-b897-48c1-ba26-05af3cdccdda",
					"Name": "Media"
				},
				{
					"ParentId": "ac731b8b-b897-48c1-ba26-05af3cdccdda",
					"ParentName": null,
					"Id": "7f87aaf6-39da-40c6-991d-8ca261faf5bb",
					"Name": "Animation"
				},
				{
					"ParentId": "ac731b8b-b897-48c1-ba26-05af3cdccdda",
					"ParentName": null,
					"Id": "298937a1-1e89-4f44-b049-dd42e6c2aaeb",
					"Name": "Broadcast Media"
				},
				{
					"ParentId": "ac731b8b-b897-48c1-ba26-05af3cdccdda",
					"ParentName": null,
					"Id": "492e79ac-2b6a-4357-b951-72141fa6fa40",
					"Name": "Media Production"
				},
				{
					"ParentId": "ac731b8b-b897-48c1-ba26-05af3cdccdda",
					"ParentName": null,
					"Id": "c1a9a15a-d87d-4b1c-ae56-86561a5f2954",
					"Name": "Newspapers"
				},
				{
					"ParentId": "ac731b8b-b897-48c1-ba26-05af3cdccdda",
					"ParentName": null,
					"Id": "e9ed83d1-e1e9-40b5-8bb6-536172056f77",
					"Name": "Online Media"
				},
				{
					"ParentId": "ac731b8b-b897-48c1-ba26-05af3cdccdda",
					"ParentName": null,
					"Id": "40d92ae0-b338-40a9-95f6-a819e47d99cc",
					"Name": "Printing"
				},
				{
					"ParentId": "ac731b8b-b897-48c1-ba26-05af3cdccdda",
					"ParentName": null,
					"Id": "4a55b9af-9888-4a02-98b6-44836296651c",
					"Name": "Publishing"
				},
				{
					"ParentId": "ac731b8b-b897-48c1-ba26-05af3cdccdda",
					"ParentName": null,
					"Id": "b6f694b3-22d8-4e7b-8345-43243cefb4f6",
					"Name": "Writing and Editing"
				},
				{
					"ParentId": null,
					"ParentName": null,
					"Id": "da5bdc47-af63-4633-8444-d1121769cb78",
					"Name": "Medical"
				},
				{
					"ParentId": "da5bdc47-af63-4633-8444-d1121769cb78",
					"ParentName": null,
					"Id": "212510f5-5d09-4708-a4e2-60fd1f4ad5e1",
					"Name": "Alternative Medicine"
				},
				{
					"ParentId": "da5bdc47-af63-4633-8444-d1121769cb78",
					"ParentName": null,
					"Id": "7fb48d55-89ab-4766-9ac5-c6631591dbad",
					"Name": "Biotechnology"
				},
				{
					"ParentId": "da5bdc47-af63-4633-8444-d1121769cb78",
					"ParentName": null,
					"Id": "73243741-3d06-480f-8e62-16fc0461e7af",
					"Name": "Health Wellness and Fitness"
				},
				{
					"ParentId": "da5bdc47-af63-4633-8444-d1121769cb78",
					"ParentName": null,
					"Id": "0d13565c-ef28-492b-9012-e2891b145dac",
					"Name": "Hospital & Health Care"
				},
				{
					"ParentId": "da5bdc47-af63-4633-8444-d1121769cb78",
					"ParentName": null,
					"Id": "51efad68-ddcd-4837-a9d3-499d264d50e0",
					"Name": "Medical Devices"
				},
				{
					"ParentId": "da5bdc47-af63-4633-8444-d1121769cb78",
					"ParentName": null,
					"Id": "5c50a8a3-cb1c-444e-b58e-f1c3f2bcb2eb",
					"Name": "Medical Practice"
				},
				{
					"ParentId": "da5bdc47-af63-4633-8444-d1121769cb78",
					"ParentName": null,
					"Id": "d90992ef-fd4c-49d6-af37-f701c57d9e22",
					"Name": "Mental Health Care"
				},
				{
					"ParentId": "da5bdc47-af63-4633-8444-d1121769cb78",
					"ParentName": null,
					"Id": "2e21f23c-7e2c-416f-955f-5bdc804f9fb1",
					"Name": "Pharmaceuticals"
				},
				{
					"ParentId": "da5bdc47-af63-4633-8444-d1121769cb78",
					"ParentName": null,
					"Id": "22efd710-6f30-479b-b27e-b5ad982a9075",
					"Name": "Veterinary"
				},
				{
					"ParentId": null,
					"ParentName": null,
					"Id": "ccc6e0ec-5d93-4cd2-ab8e-2aa210c5d44b",
					"Name": "Non-Profit"
				},
				{
					"ParentId": "ccc6e0ec-5d93-4cd2-ab8e-2aa210c5d44b",
					"ParentName": null,
					"Id": "f4aacf9a-102c-495f-a9b4-1da7172f1a7d",
					"Name": "Consumer Services"
				},
				{
					"ParentId": "ccc6e0ec-5d93-4cd2-ab8e-2aa210c5d44b",
					"ParentName": null,
					"Id": "d1f53b40-302b-4ee4-82f7-3be85ed6eaa6",
					"Name": "Fund-Raising"
				},
				{
					"ParentId": "ccc6e0ec-5d93-4cd2-ab8e-2aa210c5d44b",
					"ParentName": null,
					"Id": "cc99bec7-c88d-4cd2-87be-ce5635135023",
					"Name": "International Trade and Development"
				},
				{
					"ParentId": "ccc6e0ec-5d93-4cd2-ab8e-2aa210c5d44b",
					"ParentName": null,
					"Id": "06e741ff-51e1-4736-b7e6-eb5857dc0bc2",
					"Name": "Non-Profit Organisation Management"
				},
				{
					"ParentId": "ccc6e0ec-5d93-4cd2-ab8e-2aa210c5d44b",
					"ParentName": null,
					"Id": "eff57f43-b846-45ac-885d-290ffd64fc84",
					"Name": "Philanthropy"
				},
				{
					"ParentId": "ccc6e0ec-5d93-4cd2-ab8e-2aa210c5d44b",
					"ParentName": null,
					"Id": "f4ffc004-922d-4912-9383-83e18cb5b433",
					"Name": "Program Development"
				},
				{
					"ParentId": "ccc6e0ec-5d93-4cd2-ab8e-2aa210c5d44b",
					"ParentName": null,
					"Id": "34d3c363-82be-4224-b828-3e255b4f2d7c",
					"Name": "Think Tanks"
				},
				{
					"ParentId": null,
					"ParentName": null,
					"Id": "616e8824-d1ce-406d-a223-50a5ddb8682e",
					"Name": "Service"
				},
				{
					"ParentId": "616e8824-d1ce-406d-a223-50a5ddb8682e",
					"ParentName": null,
					"Id": "2b9ab341-a204-4ed4-8350-9df3ac16eb73",
					"Name": "Civic & Social Organisation"
				},
				{
					"ParentId": "616e8824-d1ce-406d-a223-50a5ddb8682e",
					"ParentName": null,
					"Id": "4c6c13d6-3e7c-4de2-b4ba-86139dbdea25",
					"Name": "Environmental Services"
				},
				{
					"ParentId": "616e8824-d1ce-406d-a223-50a5ddb8682e",
					"ParentName": null,
					"Id": "82b868ae-1f37-4c76-acbc-35c87a684c1e",
					"Name": "Individial & Family Services"
				},
				{
					"ParentId": "616e8824-d1ce-406d-a223-50a5ddb8682e",
					"ParentName": null,
					"Id": "88460388-bcdc-426a-b414-df2a8ab60229",
					"Name": "Information Services, Libraries"
				},
				{
					"ParentId": "616e8824-d1ce-406d-a223-50a5ddb8682e",
					"ParentName": null,
					"Id": "cd2845c3-b276-4627-9c74-b40a4bba3d61",
					"Name": "Religious Institutions"
				},
				{
					"ParentId": "616e8824-d1ce-406d-a223-50a5ddb8682e",
					"ParentName": null,
					"Id": "b6a0943c-d2eb-4df3-be9c-d1aa9938a725",
					"Name": "Translation and Localization"
				},
				{
					"ParentId": null,
					"ParentName": null,
					"Id": "1418d6bc-5bbe-4089-ae0c-6e447c6f8aff",
					"Name": "Transportaion"
				},
				{
					"ParentId": "1418d6bc-5bbe-4089-ae0c-6e447c6f8aff",
					"ParentName": null,
					"Id": "cd1ebf44-7df9-46a1-b73b-a497b9317da9",
					"Name": "Airlines/Aviation"
				},
				{
					"ParentId": "1418d6bc-5bbe-4089-ae0c-6e447c6f8aff",
					"ParentName": null,
					"Id": "05234f95-a29a-434e-a0b9-a58b24354370",
					"Name": "Logistics and Supply Chain"
				},
				{
					"ParentId": "1418d6bc-5bbe-4089-ae0c-6e447c6f8aff",
					"ParentName": null,
					"Id": "15402f36-9a3d-416b-b367-a0d796733114",
					"Name": "Maritime"
				},
				{
					"ParentId": "1418d6bc-5bbe-4089-ae0c-6e447c6f8aff",
					"ParentName": null,
					"Id": "402c7f9d-1006-4567-a4bf-2d4b6000d830",
					"Name": "Package/Freight Delivery"
				},
				{
					"ParentId": "1418d6bc-5bbe-4089-ae0c-6e447c6f8aff",
					"ParentName": null,
					"Id": "c379680f-a3f5-49e5-8c57-6b688d2a416c",
					"Name": "Transportation/Trucking/Railroad"
				},
				{
					"ParentId": "1418d6bc-5bbe-4089-ae0c-6e447c6f8aff",
					"ParentName": null,
					"Id": "f06156dc-dd15-410a-be6d-d199d54c003c",
					"Name": "Warehousing"
				}
			]
		},
		"companyTypeList": {
			"companyType": [{
					"Id": "a1c2d0bf-92aa-49da-a715-091721f01eb4",
					"Name": "VMS"
				},
				{
					"Id": "d9e3fb0f-2320-401b-81e5-0a2945904fa4",
					"Name": "Direct"
				},
				{
					"Id": "44d7245c-48c3-478e-80ff-96d0fdcab1d8",
					"Name": "MSP"
				},
				{
					"Id": "c667a279-e2d3-4c69-b4b2-e0dab9024362",
					"Name": "Paid"
				}
			]
		},
		"userRoleList": {
			"userRole": [{
					"Id": "13b7852f-3745-49a4-90f9-43bc9c35f145",
					"Name": "Application Administrator"
				},
				{
					"Id": "18b48310-9cd3-4d87-9bf7-cfec09d4e7a4",
					"Name": "Delivery Manager"
				},
				{
					"Id": "91df1057-23d8-465b-8f95-e399f5d219f8",
					"Name": "Recruiter"
				},
				{
					"Id": "472dce20-176b-46a4-ac04-fc2b4a45e08f",
					"Name": "Team Leader"
				}
			]
		},
		"monsterUSLocation": {
			"monsterLocation": [{
					"LocationID": 322,
					"ContinentName": "North America",
					"CountryAbbrev": "US",
					"CountryName": "US",
					"StateAbbrev": "AL",
					"StateName": "Alabama",
					"CityName": ""
				},
				{
					"LocationID": 317,
					"ContinentName": "North America",
					"CountryAbbrev": "US",
					"CountryName": "US",
					"StateAbbrev": "AK",
					"StateName": "Alaska",
					"CityName": ""
				},
				{
					"LocationID": 336,
					"ContinentName": "North America",
					"CountryAbbrev": "US",
					"CountryName": "US",
					"StateAbbrev": "AZ",
					"StateName": "Arizona",
					"CityName": ""
				},
				{
					"LocationID": 330,
					"ContinentName": "North America",
					"CountryAbbrev": "US",
					"CountryName": "US",
					"StateAbbrev": "AR",
					"StateName": "Arkansas",
					"CityName": ""
				},
				{
					"LocationID": 342,
					"ContinentName": "North America",
					"CountryAbbrev": "US",
					"CountryName": "US",
					"StateAbbrev": "CA",
					"StateName": "California",
					"CityName": ""
				},
				{
					"LocationID": 360,
					"ContinentName": "North America",
					"CountryAbbrev": "US",
					"CountryName": "US",
					"StateAbbrev": "CO",
					"StateName": "Colorado",
					"CityName": ""
				},
				{
					"LocationID": 366,
					"ContinentName": "North America",
					"CountryAbbrev": "US",
					"CountryName": "US",
					"StateAbbrev": "CT",
					"StateName": "Connecticut",
					"CityName": ""
				},
				{
					"LocationID": 372,
					"ContinentName": "North America",
					"CountryAbbrev": "US",
					"CountryName": "US",
					"StateAbbrev": "DE",
					"StateName": "Delaware",
					"CityName": ""
				},
				{
					"LocationID": 376,
					"ContinentName": "North America",
					"CountryAbbrev": "US",
					"CountryName": "US",
					"StateAbbrev": "FL",
					"StateName": "Florida",
					"CityName": ""
				},
				{
					"LocationID": 392,
					"ContinentName": "North America",
					"CountryAbbrev": "US",
					"CountryName": "US",
					"StateAbbrev": "GA",
					"StateName": "Georgia",
					"CityName": ""
				},
				{
					"LocationID": 400,
					"ContinentName": "North America",
					"CountryAbbrev": "US",
					"CountryName": "US",
					"StateAbbrev": "HI",
					"StateName": "Hawaii",
					"CityName": ""
				},
				{
					"LocationID": 411,
					"ContinentName": "North America",
					"CountryAbbrev": "US",
					"CountryName": "US",
					"StateAbbrev": "ID",
					"StateName": "Idaho",
					"CityName": ""
				},
				{
					"LocationID": 415,
					"ContinentName": "North America",
					"CountryAbbrev": "US",
					"CountryName": "US",
					"StateAbbrev": "IL",
					"StateName": "Illinois",
					"CityName": ""
				},
				{
					"LocationID": 425,
					"ContinentName": "North America",
					"CountryAbbrev": "US",
					"CountryName": "US",
					"StateAbbrev": "IN",
					"StateName": "Indiana",
					"CityName": ""
				},
				{
					"LocationID": 403,
					"ContinentName": "North America",
					"CountryAbbrev": "US",
					"CountryName": "US",
					"StateAbbrev": "IA",
					"StateName": "Iowa",
					"CityName": ""
				},
				{
					"LocationID": 432,
					"ContinentName": "North America",
					"CountryAbbrev": "US",
					"CountryName": "US",
					"StateAbbrev": "KS",
					"StateName": "Kansas",
					"CityName": ""
				},
				{
					"LocationID": 438,
					"ContinentName": "North America",
					"CountryAbbrev": "US",
					"CountryName": "US",
					"StateAbbrev": "KY",
					"StateName": "Kentucky",
					"CityName": ""
				},
				{
					"LocationID": 444,
					"ContinentName": "North America",
					"CountryAbbrev": "US",
					"CountryName": "US",
					"StateAbbrev": "LA",
					"StateName": "Louisiana",
					"CityName": ""
				},
				{
					"LocationID": 461,
					"ContinentName": "North America",
					"CountryAbbrev": "US",
					"CountryName": "US",
					"StateAbbrev": "ME",
					"StateName": "Maine",
					"CityName": ""
				},
				{
					"LocationID": 456,
					"ContinentName": "North America",
					"CountryAbbrev": "US",
					"CountryName": "US",
					"StateAbbrev": "MD",
					"StateName": "Maryland",
					"CityName": ""
				},
				{
					"LocationID": 452,
					"ContinentName": "North America",
					"CountryAbbrev": "US",
					"CountryName": "US",
					"StateAbbrev": "MA",
					"StateName": "Massachusetts",
					"CityName": ""
				},
				{
					"LocationID": 466,
					"ContinentName": "North America",
					"CountryAbbrev": "US",
					"CountryName": "US",
					"StateAbbrev": "MI",
					"StateName": "Michigan",
					"CityName": ""
				},
				{
					"LocationID": 477,
					"ContinentName": "North America",
					"CountryAbbrev": "US",
					"CountryName": "US",
					"StateAbbrev": "MN",
					"StateName": "Minnesota",
					"CityName": ""
				},
				{
					"LocationID": 498,
					"ContinentName": "North America",
					"CountryAbbrev": "US",
					"CountryName": "US",
					"StateAbbrev": "MS",
					"StateName": "Mississippi",
					"CityName": ""
				},
				{
					"LocationID": 486,
					"ContinentName": "North America",
					"CountryAbbrev": "US",
					"CountryName": "US",
					"StateAbbrev": "MO",
					"StateName": "Missouri",
					"CityName": ""
				},
				{
					"LocationID": 504,
					"ContinentName": "North America",
					"CountryAbbrev": "US",
					"CountryName": "US",
					"StateAbbrev": "MT",
					"StateName": "Montana",
					"CityName": ""
				},
				{
					"LocationID": 524,
					"ContinentName": "North America",
					"CountryAbbrev": "US",
					"CountryName": "US",
					"StateAbbrev": "NE",
					"StateName": "Nebraska",
					"CityName": ""
				},
				{
					"LocationID": 539,
					"ContinentName": "North America",
					"CountryAbbrev": "US",
					"CountryName": "US",
					"StateAbbrev": "NV",
					"StateName": "Nevada",
					"CityName": ""
				},
				{
					"LocationID": 683,
					"ContinentName": "North America",
					"CountryAbbrev": "US",
					"CountryName": "US",
					"StateAbbrev": "NH",
					"StateName": "New Hampshire",
					"CityName": ""
				},
				{
					"LocationID": 682,
					"ContinentName": "North America",
					"CountryAbbrev": "US",
					"CountryName": "US",
					"StateAbbrev": "NJ",
					"StateName": "New Jersey",
					"CityName": ""
				},
				{
					"LocationID": 536,
					"ContinentName": "North America",
					"CountryAbbrev": "US",
					"CountryName": "US",
					"StateAbbrev": "NM",
					"StateName": "New Mexico",
					"CityName": ""
				},
				{
					"LocationID": 543,
					"ContinentName": "North America",
					"CountryAbbrev": "US",
					"CountryName": "US",
					"StateAbbrev": "NY",
					"StateName": "New York",
					"CityName": ""
				},
				{
					"LocationID": 511,
					"ContinentName": "North America",
					"CountryAbbrev": "US",
					"CountryName": "US",
					"StateAbbrev": "NC",
					"StateName": "North Carolina",
					"CityName": ""
				},
				{
					"LocationID": 520,
					"ContinentName": "North America",
					"CountryAbbrev": "US",
					"CountryName": "US",
					"StateAbbrev": "ND",
					"StateName": "North Dakota",
					"CityName": ""
				},
				{
					"LocationID": 557,
					"ContinentName": "North America",
					"CountryAbbrev": "US",
					"CountryName": "US",
					"StateAbbrev": "OH",
					"StateName": "Ohio",
					"CityName": ""
				},
				{
					"LocationID": 568,
					"ContinentName": "North America",
					"CountryAbbrev": "US",
					"CountryName": "US",
					"StateAbbrev": "OK",
					"StateName": "Oklahoma",
					"CityName": ""
				},
				{
					"LocationID": 573,
					"ContinentName": "North America",
					"CountryAbbrev": "US",
					"CountryName": "US",
					"StateAbbrev": "OR",
					"StateName": "Oregon",
					"CityName": ""
				},
				{
					"LocationID": 580,
					"ContinentName": "North America",
					"CountryAbbrev": "US",
					"CountryName": "US",
					"StateAbbrev": "PA",
					"StateName": "Pennsylvania",
					"CityName": ""
				},
				{
					"LocationID": 315,
					"ContinentName": "North America",
					"CountryAbbrev": "US",
					"CountryName": "US",
					"StateAbbrev": "PR",
					"StateName": "Puerto Rico",
					"CityName": ""
				},
				{
					"LocationID": 590,
					"ContinentName": "North America",
					"CountryAbbrev": "US",
					"CountryName": "US",
					"StateAbbrev": "RI",
					"StateName": "Rhode Island",
					"CityName": ""
				},
				{
					"LocationID": 592,
					"ContinentName": "North America",
					"CountryAbbrev": "US",
					"CountryName": "US",
					"StateAbbrev": "SC",
					"StateName": "South Carolina",
					"CityName": ""
				},
				{
					"LocationID": 597,
					"ContinentName": "North America",
					"CountryAbbrev": "US",
					"CountryName": "US",
					"StateAbbrev": "SD",
					"StateName": "South Dakota",
					"CityName": ""
				},
				{
					"LocationID": 602,
					"ContinentName": "North America",
					"CountryAbbrev": "US",
					"CountryName": "US",
					"StateAbbrev": "TN",
					"StateName": "Tennessee",
					"CityName": ""
				},
				{
					"LocationID": 609,
					"ContinentName": "North America",
					"CountryAbbrev": "US",
					"CountryName": "US",
					"StateAbbrev": "TX",
					"StateName": "Texas",
					"CityName": ""
				},
				{
					"LocationID": 629,
					"ContinentName": "North America",
					"CountryAbbrev": "US",
					"CountryName": "US",
					"StateAbbrev": "UT",
					"StateName": "Utah",
					"CityName": ""
				},
				{
					"LocationID": 642,
					"ContinentName": "North America",
					"CountryAbbrev": "US",
					"CountryName": "US",
					"StateAbbrev": "VT",
					"StateName": "Vermont",
					"CityName": ""
				},
				{
					"LocationID": 641,
					"ContinentName": "North America",
					"CountryAbbrev": "US",
					"CountryName": "US",
					"StateAbbrev": "VI",
					"StateName": "Virgin Islands",
					"CityName": ""
				},
				{
					"LocationID": 631,
					"ContinentName": "North America",
					"CountryAbbrev": "US",
					"CountryName": "US",
					"StateAbbrev": "VA",
					"StateName": "Virginia",
					"CityName": ""
				},
				{
					"LocationID": 645,
					"ContinentName": "North America",
					"CountryAbbrev": "US",
					"CountryName": "US",
					"StateAbbrev": "WA",
					"StateName": "Washington",
					"CityName": ""
				},
				{
					"LocationID": 660,
					"ContinentName": "North America",
					"CountryAbbrev": "US",
					"CountryName": "US",
					"StateAbbrev": "WV",
					"StateName": "West Virginia",
					"CityName": ""
				},
				{
					"LocationID": 650,
					"ContinentName": "North America",
					"CountryAbbrev": "US",
					"CountryName": "US",
					"StateAbbrev": "WI",
					"StateName": "Wisconsin",
					"CityName": ""
				},
				{
					"LocationID": 666,
					"ContinentName": "North America",
					"CountryAbbrev": "US",
					"CountryName": "US",
					"StateAbbrev": "WY",
					"StateName": "Wyoming",
					"CityName": ""
				}
			]
		}

	}
}