{
    "GET_METADATA_API_URL": "data//MetaData.json",
    "API_KEY": "",    
    "CLIENT_ID": "XSEED",
    "CLIENT_SECRET": "jM]N\"*b7`GZH:9GT$Z",
    "ACCESS_TOKEN_API_URL": "https://localhost/api/",    
    "TIMEOUT_UI_IN_SEC": "900",    
}
