{
      "GET_METADATA_API_URL": "data/MetaData.json",

      "XSEED_LOGIN_API_URL": "https://www.xseed.com/API/token",

      "XSEED_API_URL": "https://www.xseed.com/API/api/",
     
      "XSEED_ORG_IMAGE_PATH": "https://www.xseed.com/API/Documents/Images/Organization/",
      "XSEED_COMPANY_IMAGE_PATH": "https://www.xseed.com/API/Documents/Images/Company/",
      "XSEED_ORGUSER_IMAGE_PATH": "https://www.xseed.com/API/Documents/Images/User/",
      "XSEED_COMPANYCONTACT_IMAGE_PATH": "https://www.xseed.com/API/Documents/Images/CompanyContact/",
      "XSEED_CANDIDATE_IMAGE_PATH": "https://www.xseed.com/API/Documents/Images/Candidate/",      
	  "XSEED_COMPANYDATA_IMAGE_PATH": "https://www.xseed.com/API/Documents/Images/CompanyData/",      
	  "XSEED_DEFAULT_IMAGE_PATH": "https://www.xseed.com/images/",
	  "XSEED_NO_IMAGE_PATH": "https://www.xseed.com/images/noImage.png",
	  "XSEED_NO_IMAGE_COMPANY_PATH": "https://www.xseed.com/images/noImage_company.png",
      "XSEED_RESUME_PATH": "https://www.xseed.com/API/Documents/Pdf/",
	  "XSEED_HOME_LINK": "https://www.xseed.com/#/",
      "XSEED_EMAIL_PARSER_EMAILID": "requirements@tcognition.com",
	  "XSEED_CANDIDATE_LOGIN_LINK": "https://www.xseed.com/candidate/#/",
	  "XSEED_USER_VALID_TIME_IN_SEC": 60000,
      "TIMEOUT_UI_IN_SEC": 86400
	  
}